id,firstName,secondName,gender,dateOfBirth,nationalityName,nationality,swimLevel,bikeLevel,runLevel,professional
1,Steven,Hendrie,male,1989-01-30,Scottish,1,41,132,169,TRUE
2,Cassie,Morrison,female,1991-08-05,English,2,41,132,169,TRUE
3,Lionel,Sanders,male,1985-12-07,Northern Irish,4,41,132,169,TRUE